[
    {
        "key": "Devin"
    },
    {
        "key": "Dan"
    },
    {
        "key": "Dominic"
    },
    {
        "key": "Jackson"
    },
    {
        "key": "James"
    },
    {
        "key": "Joel"
    },
    {
        "key": "John"
    },
    {
        "key": "Jillian"
    },
    {
        "key": "Jimmy"
    },
    {
        "key": "Julie"
    }
]